{
  "users": [
    {
      "id": 1,
      "email": "user1@example.com",
      "name": "Test User 1",
      "role": "user",
      "is_active": true,
      "created_at": "2024-01-01T00:00:00Z",
      "last_login": "2024-01-15T10:30:00Z"
    },
    {
      "id": 2,
      "email": "user2@example.com", 
      "name": "Test User 2",
      "role": "user",
      "is_active": true,
      "created_at": "2024-01-02T00:00:00Z",
      "last_login": "2024-01-16T11:45:00Z"
    },
    {
      "id": 3,
      "email": "moderator1@example.com",
      "name": "Test Moderator 1", 
      "role": "moderator",
      "is_active": true,
      "created_at": "2024-01-03T00:00:00Z",
      "last_login": "2024-01-17T09:15:00Z"
    }
  ],
  "total": 1000,
  "page": 1,
  "per_page": 100,
  "total_pages": 10
}